%YAML 1.1
%TAG !u! tag:unity3d.com,2011:
--- !u!114 &11400000
MonoBehaviour:
  m_ObjectHideFlags: 0
  m_CorrespondingSourceObject: {fileID: 0}
  m_PrefabInstance: {fileID: 0}
  m_PrefabAsset: {fileID: 0}
  m_GameObject: {fileID: 0}
  m_Enabled: 1
  m_EditorHideFlags: 0
  m_Script: {fileID: 11500000, guid: 21a4a744a4730854a890e036ed76b58a, type: 3}
  m_Name: DataServer_lvl3
  m_EditorClassIdentifier: 
  TimeBetweenSpawn: 10
  ChanceToDropHealth: 0.504
  ChanceToDropGold: 0.407
  HealthDropCount: 50
  GoldDropCount: 50
  Health: 100
