%YAML 1.1
%TAG !u! tag:unity3d.com,2011:
--- !u!114 &11400000
MonoBehaviour:
  m_ObjectHideFlags: 0
  m_CorrespondingSourceObject: {fileID: 0}
  m_PrefabInstance: {fileID: 0}
  m_PrefabAsset: {fileID: 0}
  m_GameObject: {fileID: 0}
  m_Enabled: 1
  m_EditorHideFlags: 0
  m_Script: {fileID: 11500000, guid: 28b0113ecb1c7024d83edc4cae0cdfb7, type: 3}
  m_Name: 1-5LettersByMinutes
  m_EditorClassIdentifier: 
  EnemyType: 1
  HpMiltyplier: 1.58
  DamageMiltyplier: 1.1
  StartHP: 50
  StartDamage: 4
  DataByMinutes:
  - MinuteInGame: 0
    SpawnCountInSecond: 1.2
    HP: 50
    Damage: 4
  - MinuteInGame: 1
    SpawnCountInSecond: 1.4
    HP: 79
    Damage: 4.4
  - MinuteInGame: 2
    SpawnCountInSecond: 1.6
    HP: 124.82
    Damage: 4.84
  - MinuteInGame: 3
    SpawnCountInSecond: 1.8
    HP: 197.2156
    Damage: 5.3240004
  - MinuteInGame: 4
    SpawnCountInSecond: 2
    HP: 311.60068
    Damage: 5.8564005
  - MinuteInGame: 5
    SpawnCountInSecond: 2.4
    HP: 492.32907
    Damage: 6.4420404
  - MinuteInGame: 6
    SpawnCountInSecond: 3
    HP: 777.87994
    Damage: 7.0862446
  - MinuteInGame: 7
    SpawnCountInSecond: 2.8
    HP: 1229.0503
    Damage: 7.7948694
  - MinuteInGame: 8
    SpawnCountInSecond: 2.8
    HP: 1941.8995
    Damage: 8.574356
  - MinuteInGame: 9
    SpawnCountInSecond: 2.8
    HP: 3068.2014
    Damage: 9.431792
  - MinuteInGame: 10
    SpawnCountInSecond: 2.8
    HP: 4847.7583
    Damage: 10.374971
