%YAML 1.1
%TAG !u! tag:unity3d.com,2011:
--- !u!114 &11400000
MonoBehaviour:
  m_ObjectHideFlags: 0
  m_CorrespondingSourceObject: {fileID: 0}
  m_PrefabInstance: {fileID: 0}
  m_PrefabAsset: {fileID: 0}
  m_GameObject: {fileID: 0}
  m_Enabled: 1
  m_EditorHideFlags: 0
  m_Script: {fileID: 11500000, guid: 28b0113ecb1c7024d83edc4cae0cdfb7, type: 3}
  m_Name: 1-8WordsByMinutes_LVL1
  m_EditorClassIdentifier: 
  EnemyType: 2
  HpMiltyplier: 1.8
  DamageMiltyplier: 1.1
  StartHP: 250
  StartDamage: 13
  DataByMinutes:
  - MinuteInGame: 0
    SpawnCountInSecond: 0.04
    HP: 250
    Damage: 13
  - MinuteInGame: 1
    SpawnCountInSecond: 0.067
    HP: 450
    Damage: 14.3
  - MinuteInGame: 2
    SpawnCountInSecond: 0.067
    HP: 810
    Damage: 15.7300005
  - MinuteInGame: 3
    SpawnCountInSecond: 0.1
    HP: 1458
    Damage: 17.303001
  - MinuteInGame: 4
    SpawnCountInSecond: 0.1
    HP: 2624.4
    Damage: 19.033302
  - MinuteInGame: 5
    SpawnCountInSecond: 0.1
    HP: 4723.92
    Damage: 20.936632
  - MinuteInGame: 6
    SpawnCountInSecond: 0.133
    HP: 8503.056
    Damage: 23.030296
  - MinuteInGame: 7
    SpawnCountInSecond: 0.133
    HP: 15305.5
    Damage: 25.333326
  - MinuteInGame: 8
    SpawnCountInSecond: 0.133
    HP: 27549.898
    Damage: 27.86666
  - MinuteInGame: 9
    SpawnCountInSecond: 0.167
    HP: 49589.816
    Damage: 30.653326
  - MinuteInGame: 10
    SpawnCountInSecond: 0.167
    HP: 89261.664
    Damage: 33.71866
